{
  "contentTooShort": "The content must be at least 5 characters long.",
  "defaultErrorMsg": "An error occurred.",
  "defaultStatus": "Hello, I just joined!",
  "emailDoesntExist": "A user with that email address does not exist.",
  "emailExists": "A user with that email address already exists.",
  "emailInvalid": "The email address you have entered is invalid.",
  "emptyFields": "Please fill in all fields.",
  "fileStored": "File stored successfully.",
  "imageNotProvided": "No image was provided.",
  "notAllowed": "You are not allowed to to this.",
  "notAuth": "You are not authenticated.",
  "notFound": "Could not find this resource.",
  "passwordIncorrect": "The password you have entered is incorrect.",
  "passwordsDontMatch": "Passwords do not match.",
  "passwordTooShort": "Password must be at least 6 characters long.",
  "postCreated": "Post created successfully.",
  "postDeleted": "Post deleted successfully.",
  "postDeletingNotAllowed": "You are not allowed to delete this post.",
  "postEdited": "Post updated successfully.",
  "postEditingNotAllowed": "You are not allowed to edit this post.",
  "postNotFound": "Could not find this post.",
  "socketError": "Socket.io not initialized.",
  "titleTooShort": "The title must be at least 5 characters long.",
  "unauthorized": "You are not authorized.",
  "userCreated": "User created successfully.",
  "userUpdated": "User updated successfully.",
  "userNotFound": "Could not find this user.",
  "validationFailed": "Validation failed, the data entered is invalid."
}
